<?xml version="1.0" standalone="no"?>
<!DOCTYPE svg PUBLIC "-//W3C//DTD SVG 1.1//EN" "http://www.w3.org/Graphics/SVG/1.1/DTD/svg11.dtd" >
<svg xmlns="http://www.w3.org/2000/svg">
<metadata>Generated by IcoMoon</metadata>
<defs>
<font id="icomoon" horiz-adv-x="1024">
<font-face units-per-em="1024" ascent="960" descent="-64" />
<missing-glyph horiz-adv-x="1024" />
<glyph unicode="&#x20;" horiz-adv-x="512" d="" />
<glyph unicode="&#xe900;" glyph-name="ic-person" d="M512 448c94.293 0 170.667 76.587 170.667 170.667 0 94.293-76.373 170.667-170.667 170.667s-170.667-76.373-170.667-170.667c0-94.080 76.373-170.667 170.667-170.667zM512 362.667c-113.707 0-341.333-56.96-341.333-170.667v-85.333h682.667v85.333c0 113.707-227.627 170.667-341.333 170.667z" />
<glyph unicode="&#xe901;" glyph-name="ic-close" d="M810.667 686.293l-60.373 60.373-238.293-238.293-238.293 238.293-60.373-60.373 238.293-238.293-238.293-238.293 60.373-60.373 238.293 238.293 238.293-238.293 60.373 60.373-238.293 238.293z" />
<glyph unicode="&#xe902;" glyph-name="ic-mode-edit" d="M128 224v-160h160l472.107 472.107-160 160-472.107-472.107zM883.413 659.413c16.64 16.64 16.64 43.733 0 60.373l-99.627 99.627c-16.64 16.64-43.733 16.64-60.373 0l-78.080-78.080 160-160 78.080 78.080z" />
<glyph unicode="&#xe903;" glyph-name="ic-add" d="M810.667 405.333h-256v-256h-85.333v256h-256v85.333h256v256h85.333v-256h256v-85.333z" />
<glyph unicode="&#xe904;" glyph-name="ic-content-copy" d="M682.667 917.333h-512c-47.147 0-85.333-38.187-85.333-85.333v-597.333h85.333v597.333h512v85.333zM810.667 746.667h-469.333c-47.147 0-85.333-38.187-85.333-85.333v-597.333c0-47.147 38.187-85.333 85.333-85.333h469.333c47.147 0 85.333 38.187 85.333 85.333v597.333c0 47.147-38.187 85.333-85.333 85.333zM810.667 64h-469.333v597.333h469.333v-597.333z" />
<glyph unicode="&#xe905;" glyph-name="ic-auth-key" horiz-adv-x="897" d="M640.9 896.1c-141.4 0-256-114.6-256-256 0-19.6 2.2-38.6 6.4-56.9l-391.3-391.2v-64l64-64h128l64 64v64h64v64h64v64h128l70.8 70.8c18.7-4.3 38.1-6.6 58.1-6.6 141.4 0 256 114.6 256 256s-114.7 255.9-256 255.9zM384 448l-320-320v64l320 320v-64zM704 640c-35.3 0-64 28.7-64 64s28.7 64 64 64 64-28.7 64-64c0-35.3-28.7-64-64-64z" />
<glyph unicode="&#xe906;" glyph-name="ic-chat-bubble-outline" d="M853.333 874.667h-682.667c-47.147 0-85.333-38.187-85.333-85.333v-768l170.667 170.667h597.333c47.147 0 85.333 38.187 85.333 85.333v512c0 47.147-38.187 85.333-85.333 85.333zM853.333 277.333h-597.333l-85.333-85.333v597.333h682.667v-512z" />
<glyph unicode="&#xe907;" glyph-name="ic-delete" d="M256 149.333c0-47.147 38.187-85.333 85.333-85.333h341.333c47.147 0 85.333 38.187 85.333 85.333v512h-512v-512zM810.667 789.333h-149.333l-42.667 42.667h-213.333l-42.667-42.667h-149.333v-85.333h597.333v85.333z" />
<glyph unicode="&#xe908;" glyph-name="ic-done" d="M384 270.080l-177.92 177.92-60.373-60.373 238.293-238.293 512 512-60.373 60.373z" />
<glyph unicode="&#xe909;" glyph-name="ic-done-all" d="M768 661.333l-60.373 60.373-270.507-270.72 60.373-60.373 270.507 270.72zM949.12 721.707l-451.84-451.627-177.92 177.92-60.373-60.373 238.293-238.293 512 512-60.16 60.373zM17.707 387.627l238.293-238.293 60.373 60.373-238.293 238.293-60.373-60.373z" />
<glyph unicode="&#xe90a;" glyph-name="ic-fingerprint" d="M759.893 769.28c-3.413 0-6.613 0.853-9.813 2.347-81.707 42.24-152.747 60.373-237.653 60.373-84.693 0-164.48-20.267-237.653-60.16-10.453-5.547-23.253-1.92-29.013 8.533-5.547 10.453-1.92 23.253 8.533 29.013 79.573 43.307 166.4 65.28 258.133 65.28 90.88 0 170.24-20.053 257.28-65.067 10.453-5.333 14.507-18.347 9.173-28.8-3.84-7.253-11.307-11.52-18.987-11.52zM149.333 545.28c-4.267 0-8.533 1.28-12.373 3.84-9.6 6.827-11.947 20.053-5.12 29.653 42.24 59.733 96.213 106.667 160.213 139.733 134.187 69.333 305.707 69.547 440.107 0.427 63.787-32.853 117.547-79.36 160-138.667 6.827-9.6 4.693-22.827-4.907-29.653s-23.040-4.693-29.867 4.907c-38.4 53.76-87.040 96-144.64 125.44-122.453 62.933-278.827 62.72-401.067-0.427-57.813-29.867-106.667-72.32-144.853-126.507-4.267-5.76-10.88-8.747-17.493-8.747zM416.213 30.507c-5.547 0-10.88 2.133-15.147 6.4-36.907 37.333-56.96 61.013-85.76 112.427-29.44 52.48-45.013 116.693-45.013 185.387 0 126.72 108.373 229.973 241.707 229.973s241.707-103.040 241.707-229.973c0-11.733-9.6-21.333-21.333-21.333s-21.333 9.6-21.333 21.333c0 103.253-89.173 187.307-199.040 187.307-109.653 0-199.040-84.053-199.040-187.307 0-61.44 13.653-118.187 39.467-164.48 27.52-49.067 45.867-70.187 78.72-103.253 8.32-8.32 8.32-21.973-0.213-30.080-3.84-4.48-9.387-6.4-14.72-6.4zM721.92 109.44c-50.773 0-95.36 12.8-132.267 37.76-63.36 43.093-101.333 113.067-101.333 187.307 0 11.733 9.6 21.333 21.333 21.333s21.333-9.6 21.333-21.333c0-59.947 30.933-116.693 82.773-151.893 30.080-20.48 65.493-30.507 108.16-30.507 10.24 0 27.52 1.067 44.587 4.053 11.52 2.133 22.613-5.76 24.747-17.28s-5.76-22.613-17.28-24.747c-24.96-4.48-46.080-4.693-52.053-4.693zM635.947 21.333c-1.92 0-3.84 0.213-5.547 0.853-68.053 18.56-112.427 43.733-158.507 89.6-59.52 59.307-92.373 138.453-92.373 222.72 0 69.333 58.88 125.653 131.413 125.653s131.413-56.32 131.413-125.653c0-45.653 39.893-82.987 88.747-82.987s88.747 37.12 88.747 82.987c0 160.853-138.667 291.627-309.12 291.627-121.387 0-232.107-67.413-282.027-171.947-16.64-34.56-24.96-74.88-24.96-119.68 0-33.28 2.987-85.76 28.373-153.813 4.053-11.093-1.493-23.253-12.587-27.52-11.093-4.053-23.253 1.493-27.52 12.587-20.907 56.107-31.147 111.147-31.147 168.747 0 51.2 9.813 97.707 29.227 138.027 56.96 119.040 182.827 196.053 320.427 196.053 193.92 0 351.787-149.973 351.787-334.293 0-69.333-59.093-125.653-131.413-125.653s-131.413 56.32-131.413 125.653c0 45.653-39.893 82.987-88.747 82.987s-88.747-37.12-88.747-82.987c0-72.747 28.373-141.227 79.787-192.427 40.32-40.107 79.573-62.293 139.733-78.72 11.307-3.2 18.133-14.933 14.933-26.24-2.56-9.387-11.093-15.573-20.48-15.573z" />
<glyph unicode="&#xe90b;" glyph-name="ic-power-settings-new" d="M554.667 832h-85.333v-426.667h85.333v426.667zM760.96 739.627l-60.373-60.373c66.987-54.827 110.080-137.813 110.080-231.253 0-164.907-133.76-298.667-298.667-298.667s-298.667 133.76-298.667 298.667c0 93.44 43.093 176.427 110.080 231.253l-60.373 60.373c-82.347-70.4-135.040-174.72-135.040-291.627 0-212.053 171.947-384 384-384s384 171.947 384 384c0 116.907-52.693 221.227-135.040 291.627z" />
<glyph unicode="&#xe90c;" glyph-name="ic-settings" d="M829.013 406.4c1.707 13.653 2.987 27.52 2.987 41.6s-1.28 27.947-2.987 41.6l90.24 70.613c8.107 6.4 10.453 17.92 5.12 27.307l-85.333 147.84c-5.333 9.173-16.427 13.013-26.027 9.173l-106.24-42.88c-21.973 16.853-46.080 31.147-72.107 42.027l-16 113.067c-1.92 10.027-10.667 17.92-21.333 17.92h-170.667c-10.667 0-19.413-7.893-21.12-17.92l-16-113.067c-26.027-10.88-50.133-24.96-72.107-42.027l-106.24 42.88c-9.6 3.627-20.693 0-26.027-9.173l-85.333-147.84c-5.333-9.173-2.987-20.693 5.12-27.307l90.027-70.613c-1.707-13.653-2.987-27.52-2.987-41.6s1.28-27.947 2.987-41.6l-90.027-70.613c-8.107-6.4-10.453-17.92-5.12-27.307l85.333-147.84c5.333-9.173 16.427-13.013 26.027-9.173l106.24 42.88c21.973-16.853 46.080-31.147 72.107-42.027l16-113.067c1.707-10.027 10.453-17.92 21.12-17.92h170.667c10.667 0 19.413 7.893 21.12 17.92l16 113.067c26.027 10.88 50.133 24.96 72.107 42.027l106.24-42.88c9.6-3.627 20.693 0 26.027 9.173l85.333 147.84c5.333 9.173 2.987 20.693-5.12 27.307l-90.027 70.613zM512 298.667c-82.56 0-149.333 66.773-149.333 149.333s66.773 149.333 149.333 149.333 149.333-66.773 149.333-149.333-66.773-149.333-149.333-149.333z" />
<glyph unicode="&#xe90d;" glyph-name="ic-trending-flat" d="M938.667 448l-170.667 170.667v-128h-640v-85.333h640v-128z" />
<glyph unicode="&#xe90e;" glyph-name="ic-trending-left" d="M298.667 277.333v128h640v85.333h-640v128l-170.667-170.667 170.667-170.667z" />
<glyph unicode="&#xe90f;" glyph-name="ic-visibility" d="M512 768c-213.333 0-395.52-132.693-469.333-320 73.813-187.307 256-320 469.333-320 213.547 0 395.52 132.693 469.333 320-73.813 187.307-255.787 320-469.333 320zM512 234.667c-117.76 0-213.333 95.573-213.333 213.333s95.573 213.333 213.333 213.333 213.333-95.573 213.333-213.333-95.573-213.333-213.333-213.333zM512 576c-70.613 0-128-57.387-128-128s57.387-128 128-128 128 57.387 128 128-57.387 128-128 128z" />
<glyph unicode="&#xe910;" glyph-name="ic-visibility-off" d="M512 661.333c117.76 0 213.333-95.573 213.333-213.333 0-27.52-5.547-53.76-15.147-77.867l124.8-124.8c64.427 53.76 115.2 123.307 146.56 202.667-74.027 187.307-256 320-469.547 320-59.733 0-116.907-10.667-170.027-29.867l92.16-91.947c24.107 9.387 50.347 15.147 77.867 15.147zM85.333 777.6l116.693-116.693c-70.4-55.040-126.080-128.213-159.36-212.907 73.813-187.307 256-320 469.333-320 66.133 0 129.28 12.8 187.093 36.053l18.133-18.133 124.373-124.587 54.4 54.187-756.267 756.48-54.4-54.4zM321.28 541.867l65.92-65.92c-1.92-9.173-3.2-18.347-3.2-27.947 0-70.613 57.387-128 128-128 9.6 0 18.773 1.28 27.733 3.2l65.92-65.92c-28.373-14.080-59.947-22.613-93.653-22.613-117.76 0-213.333 95.573-213.333 213.333 0 33.707 8.533 65.28 22.613 93.867zM504.96 575.36l134.4-134.4 0.64 7.040c0 70.613-57.387 128-128 128l-7.040-0.64z" />
<glyph unicode="&#xe911;" glyph-name="ic-globe" d="M512 960c-282.77 0-512-229.23-512-512s229.23-512 512-512 512 229.23 512 512-229.23 512-512 512zM512-0.002c-62.958 0-122.872 13.012-177.23 36.452l233.148 262.29c5.206 5.858 8.082 13.422 8.082 21.26v96c0 17.674-14.326 32-32 32-112.99 0-232.204 117.462-233.374 118.626-6 6.002-14.14 9.374-22.626 9.374h-128c-17.672 0-32-14.328-32-32v-192c0-12.122 6.848-23.202 17.69-28.622l110.31-55.156v-187.886c-116.052 80.956-192 215.432-192 367.664 0 68.714 15.49 133.806 43.138 192h116.862c8.488 0 16.626 3.372 22.628 9.372l128 128c6 6.002 9.372 14.14 9.372 22.628v77.412c40.562 12.074 83.518 18.588 128 18.588 70.406 0 137.004-16.26 196.282-45.2-4.144-3.502-8.176-7.164-12.046-11.036-36.266-36.264-56.236-84.478-56.236-135.764s19.97-99.5 56.236-135.764c36.434-36.432 85.218-56.264 135.634-56.26 3.166 0 6.342 0.080 9.518 0.236 13.814-51.802 38.752-186.656-8.404-372.334-0.444-1.744-0.696-3.488-0.842-5.224-81.324-83.080-194.7-134.656-320.142-134.656z" />
<glyph unicode="&#xe912;" glyph-name="ic-notifications-none" d="M512 21.333c47.147 0 85.333 38.187 85.333 85.333h-170.667c0-47.147 38.187-85.333 85.333-85.333zM768 277.333v213.333c0 131.2-69.76 240.64-192 269.653v29.013c0 35.413-28.587 64-64 64s-64-28.587-64-64v-29.013c-122.24-29.013-192-138.453-192-269.653v-213.333l-85.333-85.333v-42.667h682.667v42.667l-85.333 85.333zM682.667 234.667h-341.333v256c0 106.027 64.64 192 170.667 192s170.667-85.973 170.667-192v-256z" />
<glyph unicode="&#xe913;" glyph-name="ic-flight" d="M896 277.333v85.333l-341.333 213.333v234.667c0 35.413-28.587 64-64 64s-64-28.587-64-64v-234.667l-341.333-213.333v-85.333l341.333 106.667v-234.667l-85.333-64v-64l149.333 42.667 149.333-42.667v64l-85.333 64v234.667l341.333-106.667z" />
<glyph unicode="&#xe914;" glyph-name="ic-apps" d="M170.667 618.667h170.667v170.667h-170.667v-170.667zM426.667 106.667h170.667v170.667h-170.667v-170.667zM170.667 106.667h170.667v170.667h-170.667v-170.667zM170.667 362.667h170.667v170.667h-170.667v-170.667zM426.667 362.667h170.667v170.667h-170.667v-170.667zM682.667 789.333v-170.667h170.667v170.667h-170.667zM426.667 618.667h170.667v170.667h-170.667v-170.667zM682.667 362.667h170.667v170.667h-170.667v-170.667zM682.667 106.667h170.667v170.667h-170.667v-170.667z" />
<glyph unicode="&#xe915;" glyph-name="ic-arrow-drop-down" d="M298.667 533.333l213.333-213.333 213.333 213.333z" />
<glyph unicode="&#xe916;" glyph-name="ic-arrow-drop-up" d="M298.667 362.667l213.333 213.333 213.333-213.333z" />
<glyph unicode="&#xe917;" glyph-name="ic-back" d="M298.667 277.333v128h640v85.333h-640v128l-170.667-170.667 170.667-170.667z" />
<glyph unicode="&#xe918;" glyph-name="ic-cancel" d="M512 874.667c-235.733 0-426.667-190.933-426.667-426.667s190.933-426.667 426.667-426.667 426.667 190.933 426.667 426.667-190.933 426.667-426.667 426.667zM725.333 295.040l-60.373-60.373-152.96 152.96-152.96-152.96-60.373 60.373 152.96 152.96-152.96 152.96 60.373 60.373 152.96-152.96 152.96 152.96 60.373-60.373-152.96-152.96 152.96-152.96z" />
<glyph unicode="&#xe919;" glyph-name="ic-business" d="M512 661.333v170.667h-426.667v-768h853.333v597.333h-426.667zM256 149.333h-85.333v85.333h85.333v-85.333zM256 320h-85.333v85.333h85.333v-85.333zM256 490.667h-85.333v85.333h85.333v-85.333zM256 661.333h-85.333v85.333h85.333v-85.333zM426.667 149.333h-85.333v85.333h85.333v-85.333zM426.667 320h-85.333v85.333h85.333v-85.333zM426.667 490.667h-85.333v85.333h85.333v-85.333zM426.667 661.333h-85.333v85.333h85.333v-85.333zM853.333 149.333h-341.333v85.333h85.333v85.333h-85.333v85.333h85.333v85.333h-85.333v85.333h341.333v-426.667zM768 490.667h-85.333v-85.333h85.333v85.333zM768 320h-85.333v-85.333h85.333v85.333z" />
<glyph unicode="&#xe91a;" glyph-name="ic-check-box-outline-blank" d="M810.667 746.667v-597.333h-597.333v597.333h597.333zM810.667 832h-597.333c-47.147 0-85.333-38.187-85.333-85.333v-597.333c0-47.147 38.187-85.333 85.333-85.333h597.333c47.147 0 85.333 38.187 85.333 85.333v597.333c0 47.147-38.187 85.333-85.333 85.333z" />
<glyph unicode="&#xe91b;" glyph-name="ic-check-box" d="M810.667 832h-597.333c-47.147 0-85.333-38.187-85.333-85.333v-597.333c0-47.147 38.187-85.333 85.333-85.333h597.333c47.147 0 85.333 38.187 85.333 85.333v597.333c0 47.147-38.187 85.333-85.333 85.333zM426.667 234.667l-213.333 213.333 60.373 60.373 152.96-152.96 323.627 323.627 60.373-60.373-384-384z" />
<glyph unicode="&#xe91c;" glyph-name="ic-radio-button-checked" d="M512 661.333c-117.76 0-213.333-95.573-213.333-213.333s95.573-213.333 213.333-213.333 213.333 95.573 213.333 213.333-95.573 213.333-213.333 213.333zM512 874.667c-235.733 0-426.667-190.933-426.667-426.667s190.933-426.667 426.667-426.667 426.667 190.933 426.667 426.667-190.933 426.667-426.667 426.667zM512 106.667c-188.587 0-341.333 152.747-341.333 341.333s152.747 341.333 341.333 341.333 341.333-152.747 341.333-341.333-152.747-341.333-341.333-341.333z" />
<glyph unicode="&#xe91d;" glyph-name="ic-radio-button-unchecked" d="M512 874.667c-235.733 0-426.667-190.933-426.667-426.667s190.933-426.667 426.667-426.667 426.667 190.933 426.667 426.667-190.933 426.667-426.667 426.667zM512 106.667c-188.587 0-341.333 152.747-341.333 341.333s152.747 341.333 341.333 341.333 341.333-152.747 341.333-341.333-152.747-341.333-341.333-341.333z" />
<glyph unicode="&#xe91e;" glyph-name="ic-make-group" d="M320 832h-128c-35.2 0-64-28.8-64-64v-128c0-35.2 28.8-64 64-64h128c35.2 0 64 28.8 64 64v128c0 35.2-28.8 64-64 64zM704 576h128c35.2 0 64 28.8 64 64v128c0 35.2-28.8 64-64 64h-128c-35.2 0-64-28.8-64-64v-128c0-35.2 28.8-64 64-64zM704 768h128v-128h-128v128zM320 320h-128c-35.2 0-64-28.8-64-64v-128c0-35.2 28.8-64 64-64h128c35.2 0 64 28.8 64 64v128c0 35.2-28.8 64-64 64zM320 128h-128v128h128v-128zM832 320h-128c-35.2 0-64-28.8-64-64v-128c0-35.2 28.8-64 64-64h128c35.2 0 64 28.8 64 64v128c0 35.2-28.8 64-64 64zM896 448h-64c-85.476 0-165.834 33.286-226.274 93.724-60.44 60.442-93.726 140.802-93.726 226.276v64c0 70.4-57.6 128-128 128h-256c-70.4 0-128-57.6-128-128v-256c0-70.4 57.6-128 128-128h64c85.476 0 165.834-33.286 226.274-93.724 60.44-60.442 93.726-140.802 93.726-226.276v-64c0-70.4 57.6-128 128-128h256c70.4 0 128 57.6 128 128v256c0 70.4-57.6 128-128 128zM960 64c0-16.954-6.696-32.986-18.856-45.144-12.158-12.16-28.19-18.856-45.144-18.856h-256c-16.954 0-32.986 6.696-45.144 18.856-12.16 12.158-18.856 28.19-18.856 45.144v64c0 212.078-171.922 384-384 384h-64c-16.954 0-32.986 6.696-45.146 18.854-12.158 12.16-18.854 28.192-18.854 45.146v256c0 16.954 6.696 32.986 18.854 45.146 12.16 12.158 28.192 18.854 45.146 18.854h256c16.954 0 32.986-6.696 45.146-18.854 12.158-12.16 18.854-28.192 18.854-45.146v-64c0-212.078 171.922-384 384-384h64c16.954 0 32.986-6.696 45.144-18.856 12.16-12.158 18.856-28.19 18.856-45.144v-256z" />
<glyph unicode="&#xe91f;" glyph-name="ic-style" d="M107.947 121.387l57.387-23.68v385.067l-103.467-249.813c-17.92-43.307 2.773-93.44 46.080-111.573zM939.947 279.68l-211.627 510.507c-13.227 32-44.373 51.84-77.013 52.48-11.307 0.213-22.827-1.92-34.133-6.4l-314.24-130.133c-32-13.227-51.627-44.16-52.48-76.8-0.213-11.52 1.707-23.040 6.4-34.347l211.413-510.507c13.44-32.427 44.8-52.053 78.080-52.48 11.093 0 22.187 1.92 33.067 6.4l314.24 130.133c43.307 17.92 64.213 67.84 46.293 111.147zM336 586.667c-23.467 0-42.667 19.2-42.667 42.667s19.2 42.667 42.667 42.667 42.667-19.2 42.667-42.667-19.2-42.667-42.667-42.667zM250.667 117.333c0-46.933 38.4-85.333 85.333-85.333h62.080l-147.413 355.84v-270.507z" />
<glyph unicode="&#xe920;" glyph-name="ic-attach-money" d="M503.467 494.933c-96.853 25.173-128 50.987-128 91.52 0 46.507 42.88 79.147 115.2 79.147 75.947 0 104.107-36.267 106.667-89.6h94.293c-2.773 73.6-47.787 140.587-136.96 162.56v93.44h-128v-92.16c-82.773-18.133-149.333-71.467-149.333-154.027 0-98.56 81.707-147.627 200.533-176.213 106.88-25.6 128-62.933 128-103.040 0-29.227-20.693-76.16-115.2-76.16-87.893 0-122.667 39.467-127.147 89.6h-94.080c5.333-93.44 75.093-145.707 157.227-163.413v-92.587h128v91.733c82.987 16 149.333 64 149.333 151.68 0 120.747-103.68 162.133-200.533 187.52z" />
<glyph unicode="&#xe921;" glyph-name="ic-sitemap" d="M1024 246.857v-182.857q0-22.857-16-38.857t-38.857-16h-182.857q-22.857 0-38.857 16t-16 38.857v182.857q0 22.857 16 38.857t38.857 16h54.857v109.714h-292.571v-109.714h54.857q22.857 0 38.857-16t16-38.857v-182.857q0-22.857-16-38.857t-38.857-16h-182.857q-22.857 0-38.857 16t-16 38.857v182.857q0 22.857 16 38.857t38.857 16h54.857v109.714h-292.571v-109.714h54.857q22.857 0 38.857-16t16-38.857v-182.857q0-22.857-16-38.857t-38.857-16h-182.857q-22.857 0-38.857 16t-16 38.857v182.857q0 22.857 16 38.857t38.857 16h54.857v109.714q0 29.714 21.714 51.429t51.429 21.714h292.571v109.714h-54.857q-22.857 0-38.857 16t-16 38.857v182.857q0 22.857 16 38.857t38.857 16h182.857q22.857 0 38.857-16t16-38.857v-182.857q0-22.857-16-38.857t-38.857-16h-54.857v-109.714h292.571q29.714 0 51.429-21.714t21.714-51.429v-109.714h54.857q22.857 0 38.857-16t16-38.857z" />
<glyph unicode="&#xe922;" glyph-name="ic-payment" d="M853.333 789.333h-682.667c-47.147 0-84.907-38.187-84.907-85.333l-0.427-512c0-47.147 38.187-85.333 85.333-85.333h682.667c47.147 0 85.333 38.187 85.333 85.333v512c0 47.147-38.187 85.333-85.333 85.333zM853.333 192h-682.667v256h682.667v-256zM853.333 618.667h-682.667v85.333h682.667v-85.333z" />
<glyph unicode="&#xe923;" glyph-name="ic-shopping-basket" d="M734.293 576l-186.88 279.68c-8.107 12.373-21.76 18.133-35.413 18.133s-27.307-5.973-35.413-18.133l-186.88-279.68h-204.373c-23.467 0-42.667-19.2-42.667-42.667 0-4.053 0.64-7.893 1.493-11.52l108.16-395.52c10.027-35.84 43.093-62.293 82.347-62.293h554.667c39.253 0 72.32 26.453 82.133 62.507l108.16 395.52c1.067 3.413 1.707 7.253 1.707 11.307 0 23.467-19.2 42.667-42.667 42.667h-204.373zM384 576l128 187.733 128-187.733h-256zM512 234.667c-47.147 0-85.333 38.187-85.333 85.333s38.187 85.333 85.333 85.333 85.333-38.187 85.333-85.333-38.187-85.333-85.333-85.333z" />
<glyph unicode="&#xe924;" glyph-name="ic-view-day" d="M85.333 64h810.667v128h-810.667v-128zM853.333 618.667h-725.333c-23.467 0-42.667-19.2-42.667-42.667v-256c0-23.467 19.2-42.667 42.667-42.667h725.333c23.467 0 42.667 19.2 42.667 42.667v256c0 23.467-19.2 42.667-42.667 42.667zM85.333 832v-128h810.667v128h-810.667z" />
<glyph unicode="&#xe925;" glyph-name="ic-brightness-1" d="M938.667 448c0-235.641-191.025-426.667-426.667-426.667s-426.667 191.025-426.667 426.667c0 235.641 191.025 426.667 426.667 426.667s426.667-191.025 426.667-426.667z" />
<glyph unicode="&#xe926;" glyph-name="ic-check" d="M384 270.080l-177.92 177.92-60.373-60.373 238.293-238.293 512 512-60.373 60.373z" />
<glyph unicode="&#xe927;" glyph-name="ic-chevron-left" d="M657.707 643.627l-60.373 60.373-256-256 256-256 60.373 60.373-195.627 195.627z" />
<glyph unicode="&#xe928;" glyph-name="ic-chevron-right" d="M426.667 704l-60.373-60.373 195.627-195.627-195.627-195.627 60.373-60.373 256 256z" />
<glyph unicode="&#xe929;" glyph-name="ic-expand-less" d="M512 618.667l-256-256 60.373-60.373 195.627 195.627 195.627-195.627 60.373 60.373z" />
<glyph unicode="&#xe92a;" glyph-name="ic-expand-more" d="M707.627 593.707l-195.627-195.627-195.627 195.627-60.373-60.373 256-256 256 256z" />
<glyph unicode="&#xe92b;" glyph-name="ic-menu" d="M128 192h768v85.333h-768v-85.333zM128 405.333h768v85.333h-768v-85.333zM128 704v-85.333h768v85.333h-768z" />
<glyph unicode="&#xe92c;" glyph-name="ic-more-horiz" d="M256 533.333c-47.147 0-85.333-38.187-85.333-85.333s38.187-85.333 85.333-85.333 85.333 38.187 85.333 85.333-38.187 85.333-85.333 85.333zM768 533.333c-47.147 0-85.333-38.187-85.333-85.333s38.187-85.333 85.333-85.333 85.333 38.187 85.333 85.333-38.187 85.333-85.333 85.333zM512 533.333c-47.147 0-85.333-38.187-85.333-85.333s38.187-85.333 85.333-85.333 85.333 38.187 85.333 85.333-38.187 85.333-85.333 85.333z" />
<glyph unicode="&#xe92d;" glyph-name="ic-more-vert" d="M512 618.667c47.147 0 85.333 38.187 85.333 85.333s-38.187 85.333-85.333 85.333-85.333-38.187-85.333-85.333 38.187-85.333 85.333-85.333zM512 533.333c-47.147 0-85.333-38.187-85.333-85.333s38.187-85.333 85.333-85.333 85.333 38.187 85.333 85.333-38.187 85.333-85.333 85.333zM512 277.333c-47.147 0-85.333-38.187-85.333-85.333s38.187-85.333 85.333-85.333 85.333 38.187 85.333 85.333-38.187 85.333-85.333 85.333z" />
<glyph unicode="&#xe92e;" glyph-name="ic-refresh" d="M753.067 689.067c-61.653 61.867-146.773 100.267-241.067 100.267-188.587 0-340.907-152.747-340.907-341.333s152.32-341.333 340.907-341.333c158.933 0 292.053 108.8 329.813 256h-88.747c-35.2-99.413-129.493-170.667-241.067-170.667-141.44 0-256 114.56-256 256s114.56 256 256 256c70.613 0 133.973-29.44 180.267-75.733l-137.6-137.6h298.667v298.667l-100.267-100.267z" />
<glyph unicode="&#xe92f;" glyph-name="ic-subdirectory-arrow-right" d="M-661.333 341.333l-256-256-60.373 60.373 152.96 152.96h-476.587v512h85.333v-426.667h391.253l-152.96 152.96 60.373 60.373 256-256zM853.333 320l-256-256-60.373 60.373 152.96 152.96h-519.253v554.667h85.333v-469.333h433.92l-152.96 152.96 60.373 60.373 256-256z" />
<glyph unicode="&#xe930;" glyph-name="ic-zoom-out-map" d="M640 832l97.92-97.92-122.88-122.667 60.373-60.373 122.667 122.88 97.92-97.92v256zM128 576l97.92 97.92 122.667-122.88 60.373 60.373-122.88 122.667 97.92 97.92h-256zM384 64l-97.92 97.92 122.88 122.667-60.373 60.373-122.667-122.88-97.92 97.92v-256zM896 320l-97.92-97.92-122.667 122.88-60.373-60.373 122.88-122.667-97.92-97.92h256z" />
<glyph unicode="&#xe931;" glyph-name="ic-call-split" d="M597.333 789.333l97.92-97.92-122.88-122.667 60.373-60.373 122.667 122.88 97.92-97.92v256zM426.667 789.333h-256v-256l97.92 97.92 200.747-200.96v-323.627h85.333v359.040l-225.92 225.707z" />
<glyph unicode="&#xe932;" glyph-name="ic-open-with" d="M426.667 576h170.667v128h128l-213.333 213.333-213.333-213.333h128v-128zM384 533.333h-128v128l-213.333-213.333 213.333-213.333v128h128v170.667zM981.333 448l-213.333 213.333v-128h-128v-170.667h128v-128l213.333 213.333zM597.333 320h-170.667v-128h-128l213.333-213.333 213.333 213.333h-128v128z" />
<glyph unicode="&#xe933;" glyph-name="ic-share" d="M768 273.707c-32.427 0-61.653-12.587-83.84-32.853l-304 177.28c2.347 9.6 3.84 19.627 3.84 29.867s-1.493 20.267-3.84 29.867l300.8 175.573c22.827-21.333 53.333-34.56 87.040-34.56 70.613 0 128 57.387 128 128s-57.387 128-128 128-128-57.387-128-128c0-10.24 1.493-20.267 3.84-29.867l-300.8-175.573c-22.827 21.333-53.333 34.56-87.040 34.56-70.613 0-128-57.387-128-128s57.387-128 128-128c33.707 0 64.213 13.227 87.040 34.56l304-177.28c-2.133-8.96-3.413-18.347-3.413-27.947 0-68.693 55.68-124.373 124.373-124.373s124.373 55.68 124.373 124.373-55.68 124.373-124.373 124.373z" />
<glyph unicode="&#xe934;" glyph-name="ic-shuffle" d="M451.627 568.747l-220.587 220.587-60.373-60.373 220.587-220.587 60.373 60.373zM618.667 789.333l87.253-87.253-535.253-535.040 60.373-60.373 535.253 535.253 87.040-87.253v234.667h-234.667zM632.747 387.627l-60.373-60.373 133.547-133.547-87.253-87.040h234.667v234.667l-87.253-87.253-133.333 133.547z" />
<glyph unicode="&#xe935;" glyph-name="ic-priority-high" d="M597.333 149.333c0-47.128-38.205-85.333-85.333-85.333s-85.333 38.205-85.333 85.333c0 47.128 38.205 85.333 85.333 85.333s85.333-38.205 85.333-85.333zM426.667 832h170.667v-512h-170.667z" />
<glyph unicode="&#xe936;" glyph-name="ic-arrow-downward" d="M853.333 448l-60.16 60.16-238.507-238.080v519.253h-85.333v-519.253l-238.080 238.507-60.587-60.587 341.333-341.333 341.333 341.333z" />
<glyph unicode="&#xe937;" glyph-name="ic-arrow-upward" d="M170.667 448l60.373-60.373 238.293 238.293v-519.253h85.333v519.253l238.293-238.293 60.373 60.373-341.333 341.333-341.333-341.333z" />
<glyph unicode="&#xe938;" glyph-name="ic-send" d="M85.76 64l895.573 384-895.573 384-0.427-298.667 640-85.333-640-85.333z" />
<glyph unicode="&#xe939;" glyph-name="ic-filter" d="M911.429 791.429q9.714-23.429-8-40l-281.714-281.714v-424q0-24-22.286-33.714-7.429-2.857-14.286-2.857-15.429 0-25.714 10.857l-146.286 146.286q-10.857 10.857-10.857 25.714v277.714l-281.714 281.714q-17.714 16.571-8 40 9.714 22.286 33.714 22.286h731.429q24 0 33.714-22.286z" />
<glyph unicode="&#xe93a;" glyph-name="ic-ondemand-video" d="M896 832h-768c-47.147 0-85.333-38.187-85.333-85.333v-512c0-47.147 38.187-85.333 85.333-85.333h213.333v-85.333h341.333v85.333h213.333c47.147 0 84.907 38.187 84.907 85.333l0.427 512c0 47.147-38.187 85.333-85.333 85.333zM896 234.667h-768v512h768v-512zM682.667 490.667l-298.667-170.667v341.333z" />
<glyph unicode="&#xe93b;" glyph-name="ic-help" d="M512 874.667c-235.733 0-426.667-190.933-426.667-426.667s190.933-426.667 426.667-426.667 426.667 190.933 426.667 426.667-190.933 426.667-426.667 426.667zM554.667 149.333h-85.333v85.333h85.333v-85.333zM642.773 479.787l-38.187-39.253c-30.72-30.72-49.92-56.533-49.92-120.533h-85.333v21.333c0 47.147 19.2 89.813 49.92 120.747l53.12 53.76c15.36 15.36 24.96 36.693 24.96 60.16 0 47.147-38.187 85.333-85.333 85.333s-85.333-38.187-85.333-85.333h-85.333c0 94.293 76.373 170.667 170.667 170.667s170.667-76.373 170.667-170.667c0-37.547-15.147-71.467-39.893-96.213z" />
</font></defs></svg>